<svg width="128" height="128" viewBox="0 0 128 128" fill="none" xmlns="http://www.w3.org/2000/svg">
<path d="M83.5986 35.5996L69.3519 20.8338" stroke="#AEC6A4" stroke-width="4" stroke-linecap="round"/>
<path d="M71.615 34.9716L53.583 16.0019" stroke="#AEC6A4" stroke-width="4" stroke-linecap="round"/>
<path d="M59.6315 34.3436L34.9574 9.05243" stroke="#AEC6A4" stroke-width="4" stroke-linecap="round"/>
<path fill-rule="evenodd" clip-rule="evenodd" d="M115.756 103.814C116.152 104.218 116.019 104.995 115.459 105.55C114.921 106.083 114.185 106.218 113.776 105.871L113.727 105.825L108.641 100.762C86.3746 122.944 50.3424 122.918 28.1085 100.684C6.0712 78.6467 5.85083 43.0541 27.4474 20.7457L27.8601 20.325L23.7658 16.2484C23.3696 15.8449 23.5028 15.0677 24.0632 14.5124C24.6013 13.9793 25.3376 13.8445 25.7461 14.1915L25.7955 14.2374L115.756 103.814Z" fill="url(#paint0_linear)"/>
<rect x="49" y="42" width="33" height="52" fill="white"/>
<path d="M75.0714 40.0002V41.0002H76.0714L78.7132 41.0002C78.7135 41.0002 78.7138 41.0002 78.7141 41.0002C81.0718 41.0032 82.9975 42.9337 83 45.3346V90.6656C82.9975 93.0668 81.0713 94.9975 78.7132 95H52.2868C49.9289 94.9975 48.0028 93.0671 48 90.6661V45.3341C48.0028 42.9334 49.9284 41.0032 52.2859 41.0002C52.2862 41.0002 52.2865 41.0002 52.2868 41.0002L54.9286 41.0002H55.9286V40.0002V33.3336C55.9286 33.141 56.0809 33.0003 56.25 33.0003L56.2539 33.0003C56.8848 32.9978 57.4928 33.2474 57.9443 33.6975L57.9694 33.7225L57.9962 33.7457C58.0057 33.7539 58.0155 33.7624 58.0256 33.7712C58.1581 33.8861 58.342 34.0456 58.5416 34.1522C58.8391 34.3111 59.1109 34.3336 59.3277 34.3336C59.5445 34.3336 59.8162 34.3111 60.1139 34.1527C60.3167 34.0448 60.5021 33.8834 60.6364 33.7665C60.6457 33.7585 60.6546 33.7507 60.6633 33.7431L60.6875 33.7222L60.7102 33.6997C61.6554 32.7671 63.1621 32.7671 64.1072 33.6997L64.1307 33.7229L64.1557 33.7445C64.1641 33.7518 64.1727 33.7592 64.1815 33.7669C64.3173 33.8845 64.5035 34.0458 64.7073 34.1537C65.0044 34.3109 65.2752 34.3336 65.4922 34.3336C65.709 34.3336 65.9807 34.311 66.2784 34.1526C66.4813 34.0446 66.6668 33.883 66.8013 33.7659C66.8104 33.758 66.8193 33.7502 66.828 33.7427L66.8518 33.722L66.8742 33.6999C67.8211 32.7669 69.3292 32.7667 70.2763 33.6994L70.2987 33.7215L70.3224 33.742C70.3314 33.7499 70.3407 33.758 70.3503 33.7664C70.4843 33.8831 70.6701 34.0449 70.8734 34.1529C71.1723 34.3117 71.4453 34.3336 71.662 34.3336C71.8791 34.3336 72.1518 34.3114 72.4503 34.1532C72.6538 34.0452 72.8399 33.8836 72.9744 33.7667C72.9838 33.7585 72.993 33.7505 73.0019 33.7427L73.0274 33.7207L73.0513 33.697C73.5048 33.2472 74.1141 32.9978 74.7461 33.0003H74.75C74.9191 33.0003 75.0714 33.141 75.0714 33.3336V40.0002Z" stroke="#183B56" stroke-width="2"/>
<path d="M59.3276 36.0003C60.2259 36.0035 61.089 35.6485 61.7292 35.0127C62.0641 34.7216 62.137 34.6669 62.4092 34.6669C62.6814 34.6669 62.7538 34.7216 63.0893 35.0127C64.4249 36.3294 66.5581 36.3294 67.8936 35.0127C68.2291 34.7216 68.3013 34.6669 68.5738 34.6669C68.8499 34.6669 68.9221 34.7216 69.2589 35.0136C69.8997 35.6491 70.7633 36.0037 71.6618 36.0003C72.288 36.0108 72.9031 35.8327 73.4284 35.4887V45.3335H57.5713V35.4924C58.0938 35.8339 58.7052 36.0107 59.3276 36.0003Z" fill="white"/>
<path fill-rule="evenodd" clip-rule="evenodd" d="M54.127 50.0877H76.8606C77.9356 50.0885 78.3922 50.8193 78.3938 51.7209V59.6878C78.3922 60.5893 77.9339 61.3202 76.8606 61.321H54.127C53.2537 61.3203 52.6076 60.5893 52.606 59.6878V51.7209C52.6076 50.8193 53.2537 50.0883 54.127 50.0877ZM54.9285 52.1437H76.0723V59.4242H54.9285V52.1437Z" fill="#FBBD92"/>
<path fill-rule="evenodd" clip-rule="evenodd" d="M54.9285 63.7193H76.0714C77.5303 63.7213 78.7125 65.1395 78.7142 66.8896V87.4964C78.7125 89.2465 77.5303 90.6647 76.0714 90.6667H54.9285C53.4696 90.6647 52.2873 89.2465 52.2856 87.4964V66.8896C52.2873 65.1395 53.4696 63.7213 54.9285 63.7193ZM70.7856 71.645H76.0714V66.8896H70.7856V71.645ZM54.9285 74.8153H60.2142V79.5707H54.9285V74.8153ZM68.1428 74.8153H62.8571V79.5707H68.1428V74.8153ZM70.7856 74.8153H76.0714V79.5707H70.7856V74.8153ZM68.1428 71.645V66.8896H62.8571V71.645H68.1428ZM60.2142 66.8896V71.645H54.9285V66.8896H60.2142ZM60.2142 82.741H54.9285V87.4964H60.2142V82.741ZM62.8571 87.4964V82.741H68.1428V87.4964H62.8571ZM70.7856 82.741V87.4964H76.0723V82.741H70.7856Z" fill="#183B56"/>
<defs>
<linearGradient id="paint0_linear" x1="-14.7291" y1="75.8849" x2="110.038" y2="128.592" gradientUnits="userSpaceOnUse">
<stop stop-color="#AEC6A4"/>
<stop offset="1" stop-color="#475B61"/>
</linearGradient>
</defs>
</svg>
