<svg width="587" height="626" viewBox="0 0 587 626" fill="none" xmlns="http://www.w3.org/2000/svg">
<path fill-rule="evenodd" clip-rule="evenodd" d="M510.846 400.793C512.326 401.95 512.755 403.942 511.787 405.345C510.78 406.806 508.639 407.075 507.006 405.946L491.572 395.271C394.867 460.902 244.37 463.081 153.945 399.764C64.1626 336.898 67.0852 232.912 159.482 165.582L140.345 152.347L140.155 152.207C138.674 151.05 138.246 149.058 139.213 147.655C140.221 146.194 142.361 145.925 143.994 147.054L510.655 400.653L510.846 400.793Z" fill="url(#paint0_linear)"/>
<path d="M538.91 381.987L409.287 294.372C405.394 291.741 400.541 290.954 396.016 292.22L244.72 334.552C237.893 336.462 230.571 335.257 224.717 331.258L184.37 303.701C167.461 292.153 174.702 265.746 195.137 264.438V264.438" stroke="#FBBD92" stroke-width="4" stroke-linecap="round"/>
<path d="M278 163L232 132" stroke="#AEC6A4" stroke-width="6" stroke-linecap="round"/>
<path d="M258 174L196 132" stroke="#AEC6A4" stroke-width="6" stroke-linecap="round"/>
<path d="M238.5 183.5L154.5 126.5" stroke="#AEC6A4" stroke-width="6" stroke-linecap="round"/>
<path fill-rule="evenodd" clip-rule="evenodd" d="M188.435 305.853L126.021 275.526V299.697C126.001 300.073 125.996 300.45 126.021 300.83C126.313 305.301 129.702 309.949 136.056 313.613L289.684 402.225C295.99 405.862 303.973 407.812 311.665 408.002C318.804 408.177 325.693 406.838 330.76 403.91L490.216 311.759C495.238 308.857 497.554 304.923 497.291 300.841L497.311 300.83V275.526L434.967 305.819L333.629 247.368C326.984 243.535 318.477 241.572 310.411 241.571C303.717 241.571 297.327 242.923 292.553 245.682L188.435 305.853Z" fill="url(#paint1_linear)"/>
<mask id="mask0" mask-type="alpha" maskUnits="userSpaceOnUse" x="126" y="241" width="372" height="168">
<path fill-rule="evenodd" clip-rule="evenodd" d="M188.435 305.853L126.021 275.526V299.697C126.001 300.073 125.996 300.45 126.021 300.83C126.313 305.301 129.702 309.949 136.056 313.613L289.684 402.225C295.99 405.862 303.973 407.812 311.665 408.002C318.804 408.177 325.693 406.838 330.76 403.91L490.216 311.759C495.238 308.857 497.554 304.923 497.291 300.841L497.311 300.83V275.526L434.967 305.819L333.629 247.368C326.984 243.535 318.477 241.572 310.411 241.571C303.717 241.571 297.327 242.923 292.553 245.682L188.435 305.853Z" fill="white"/>
</mask>
<g mask="url(#mask0)">
</g>
<mask id="mask1" mask-type="alpha" maskUnits="userSpaceOnUse" x="126" y="168" width="372" height="215">
<path fill-rule="evenodd" clip-rule="evenodd" d="M126 168.334H497.313V382.718H126V168.334Z" fill="white"/>
</mask>
<g mask="url(#mask1)">
<path fill-rule="evenodd" clip-rule="evenodd" d="M497.292 275.526C496.999 271.055 493.61 266.407 487.257 262.742L333.629 174.13C321.469 167.117 303.079 166.362 292.553 172.445L133.097 264.596C128.071 267.501 125.753 271.44 126.021 275.526C126.313 279.997 129.702 284.645 136.056 288.31L289.684 376.921C301.843 383.935 320.234 384.69 330.76 378.607L490.216 286.456C495.242 283.551 497.56 279.612 497.292 275.526Z" fill="white"/>
</g>
<mask id="mask2" mask-type="alpha" maskUnits="userSpaceOnUse" x="126" y="167" width="372" height="215">
<path fill-rule="evenodd" clip-rule="evenodd" d="M292.553 171.119L133.096 263.27C128.328 266.026 125.998 269.712 126 273.573V273.58C126 273.786 126.007 273.993 126.021 274.2C126.313 278.671 129.702 283.319 136.056 286.983L289.684 375.594C301.843 382.608 320.233 383.363 330.76 377.28L490.216 285.129C495.242 282.225 497.56 278.286 497.291 274.2C496.999 269.728 493.61 265.08 487.256 261.416L333.629 172.805C326.984 168.972 318.477 167.008 310.411 167.008C303.717 167.008 297.327 168.36 292.553 171.119Z" fill="white"/>
</mask>
<g mask="url(#mask2)">
<path fill-rule="evenodd" clip-rule="evenodd" d="M133.096 263.27C128.328 266.026 125.998 269.712 126 273.573C126 273.786 126.007 273.993 126.021 274.2C126.313 278.671 129.702 283.319 136.056 286.983L289.684 375.594C301.843 382.608 320.233 383.363 330.76 377.28L490.216 285.129C495.242 282.225 497.56 278.286 497.291 274.2C496.999 269.728 493.61 265.08 487.256 261.416L333.629 172.805C326.984 168.972 318.477 167.008 310.411 167.008C303.717 167.008 297.327 168.36 292.553 171.119L133.096 263.27Z" fill="url(#paint2_linear)"/>
</g>
<path fill-rule="evenodd" clip-rule="evenodd" d="M173.47 296.386C174.466 296.961 174.466 297.893 173.47 298.468C172.474 299.043 170.86 299.043 169.864 298.468C168.868 297.893 168.868 296.961 169.864 296.386C170.86 295.811 172.474 295.811 173.47 296.386Z" fill="white"/>
<path fill-rule="evenodd" clip-rule="evenodd" d="M192.79 285.232C193.786 285.807 193.786 286.739 192.79 287.314C191.794 287.889 190.18 287.889 189.184 287.314C188.187 286.739 188.187 285.807 189.184 285.232C190.179 284.657 191.794 284.657 192.79 285.232Z" fill="white"/>
<path fill-rule="evenodd" clip-rule="evenodd" d="M212.11 274.078C213.106 274.653 213.106 275.585 212.11 276.16C211.114 276.735 209.5 276.735 208.504 276.16C207.508 275.585 207.508 274.653 208.504 274.078C209.5 273.503 211.114 273.503 212.11 274.078Z" fill="white"/>
<path fill-rule="evenodd" clip-rule="evenodd" d="M231.43 262.923C232.426 263.498 232.426 264.43 231.43 265.005C230.434 265.58 228.82 265.58 227.824 265.005C226.827 264.43 226.827 263.498 227.824 262.923C228.82 262.348 230.434 262.348 231.43 262.923Z" fill="white"/>
<path fill-rule="evenodd" clip-rule="evenodd" d="M192.79 307.541C193.786 308.116 193.786 309.048 192.79 309.624C191.794 310.198 190.18 310.198 189.184 309.624C188.187 309.048 188.187 308.116 189.184 307.541C190.179 306.966 191.794 306.966 192.79 307.541Z" fill="white"/>
<path fill-rule="evenodd" clip-rule="evenodd" d="M212.11 296.387C213.106 296.962 213.106 297.894 212.11 298.469C211.114 299.044 209.5 299.044 208.504 298.469C207.508 297.894 207.508 296.962 208.504 296.387C209.5 295.812 211.114 295.812 212.11 296.387Z" fill="white"/>
<path fill-rule="evenodd" clip-rule="evenodd" d="M231.431 285.232C232.427 285.807 232.427 286.739 231.431 287.314C230.435 287.889 228.821 287.889 227.825 287.314C226.829 286.739 226.829 285.807 227.825 285.232C228.821 284.657 230.435 284.657 231.431 285.232Z" fill="white"/>
<path fill-rule="evenodd" clip-rule="evenodd" d="M250.751 274.078C251.747 274.653 251.747 275.585 250.751 276.16C249.755 276.735 248.14 276.735 247.145 276.16C246.148 275.585 246.148 274.653 247.145 274.078C248.14 273.503 249.755 273.503 250.751 274.078Z" fill="white"/>
<path fill-rule="evenodd" clip-rule="evenodd" d="M212.111 318.696C213.107 319.271 213.107 320.203 212.111 320.779C211.115 321.353 209.5 321.353 208.505 320.779C207.508 320.203 207.508 319.271 208.505 318.696C209.5 318.121 211.115 318.121 212.111 318.696Z" fill="white"/>
<path fill-rule="evenodd" clip-rule="evenodd" d="M231.431 309.623C230.435 310.198 228.821 310.198 227.825 309.623C226.829 309.048 226.829 308.116 227.825 307.541C228.821 306.966 230.435 306.966 231.431 307.541C232.427 308.116 232.427 309.048 231.431 309.623Z" fill="white"/>
<path fill-rule="evenodd" clip-rule="evenodd" d="M250.751 296.387C251.747 296.962 251.747 297.894 250.751 298.469C249.755 299.044 248.141 299.044 247.145 298.469C246.148 297.894 246.148 296.962 247.145 296.387C248.14 295.812 249.755 295.812 250.751 296.387Z" fill="white"/>
<path fill-rule="evenodd" clip-rule="evenodd" d="M270.071 285.232C271.067 285.807 271.067 286.739 270.071 287.315C269.075 287.889 267.461 287.889 266.465 287.315C265.469 286.739 265.469 285.807 266.465 285.232C267.461 284.657 269.075 284.657 270.071 285.232Z" fill="white"/>
<path fill-rule="evenodd" clip-rule="evenodd" d="M231.432 329.851C232.428 330.426 232.428 331.358 231.432 331.934C230.436 332.508 228.821 332.508 227.825 331.934C226.829 331.358 226.829 330.426 227.825 329.851C228.821 329.276 230.436 329.276 231.432 329.851Z" fill="white"/>
<path fill-rule="evenodd" clip-rule="evenodd" d="M250.752 318.696C251.748 319.271 251.748 320.203 250.752 320.778C249.756 321.353 248.142 321.353 247.146 320.778C246.149 320.203 246.149 319.271 247.146 318.696C248.142 318.121 249.756 318.121 250.752 318.696Z" fill="white"/>
<path fill-rule="evenodd" clip-rule="evenodd" d="M270.072 307.542C271.068 308.117 271.068 309.049 270.072 309.624C269.076 310.199 267.461 310.199 266.466 309.624C265.469 309.049 265.469 308.117 266.466 307.542C267.461 306.967 269.076 306.967 270.072 307.542Z" fill="white"/>
<path fill-rule="evenodd" clip-rule="evenodd" d="M289.392 296.387C290.388 296.962 290.388 297.894 289.392 298.47C288.396 299.044 286.782 299.044 285.786 298.47C284.789 297.894 284.789 296.962 285.786 296.387C286.782 295.812 288.396 295.812 289.392 296.387Z" fill="white"/>
<path fill-rule="evenodd" clip-rule="evenodd" d="M250.752 341.005C251.748 341.58 251.748 342.512 250.752 343.088C249.756 343.662 248.142 343.662 247.146 343.087C246.15 342.512 246.15 341.58 247.146 341.005C248.142 340.43 249.756 340.43 250.752 341.005Z" fill="white"/>
<path fill-rule="evenodd" clip-rule="evenodd" d="M270.073 329.851C271.069 330.426 271.069 331.358 270.073 331.933C269.077 332.508 267.461 332.508 266.466 331.933C265.47 331.358 265.47 330.426 266.466 329.851C267.461 329.276 269.077 329.276 270.073 329.851Z" fill="white"/>
<path fill-rule="evenodd" clip-rule="evenodd" d="M289.393 318.697C290.389 319.272 290.389 320.204 289.393 320.779C288.397 321.354 286.783 321.354 285.787 320.779C284.791 320.204 284.791 319.272 285.787 318.697C286.783 318.122 288.397 318.122 289.393 318.697Z" fill="white"/>
<path fill-rule="evenodd" clip-rule="evenodd" d="M308.713 307.542C309.709 308.117 309.709 309.049 308.713 309.625C307.717 310.199 306.102 310.199 305.107 309.625C304.11 309.049 304.11 308.117 305.107 307.542C306.102 306.967 307.717 306.967 308.713 307.542Z" fill="white"/>
<path fill-rule="evenodd" clip-rule="evenodd" d="M308.713 307.542C309.709 308.117 309.709 309.049 308.713 309.625C307.717 310.199 306.102 310.199 305.107 309.625C304.11 309.049 304.11 308.117 305.107 307.542C306.102 306.967 307.717 306.967 308.713 307.542Z" fill="white"/>
<path fill-rule="evenodd" clip-rule="evenodd" d="M250.75 251.768C251.746 252.343 251.746 253.275 250.75 253.85C249.754 254.425 248.139 254.425 247.143 253.85C246.147 253.275 246.147 252.343 247.143 251.768C248.139 251.193 249.754 251.193 250.75 251.768Z" fill="white"/>
<path fill-rule="evenodd" clip-rule="evenodd" d="M270.071 240.614C271.067 241.189 271.067 242.121 270.071 242.697C269.075 243.271 267.461 243.271 266.465 242.697C265.468 242.121 265.468 241.189 266.465 240.614C267.461 240.039 269.075 240.039 270.071 240.614Z" fill="white"/>
<path fill-rule="evenodd" clip-rule="evenodd" d="M289.39 229.459C290.386 230.034 290.386 230.966 289.39 231.541C288.394 232.116 286.779 232.116 285.784 231.541C284.787 230.966 284.787 230.034 285.784 229.459C286.779 228.884 288.394 228.884 289.39 229.459Z" fill="white"/>
<path fill-rule="evenodd" clip-rule="evenodd" d="M270.071 262.923C271.067 263.498 271.067 264.43 270.071 265.005C269.075 265.58 267.461 265.58 266.465 265.005C265.469 264.43 265.469 263.498 266.465 262.923C267.461 262.348 269.075 262.348 270.071 262.923Z" fill="white"/>
<path fill-rule="evenodd" clip-rule="evenodd" d="M289.391 251.769C290.387 252.344 290.387 253.276 289.391 253.851C288.395 254.426 286.78 254.426 285.785 253.851C284.788 253.276 284.788 252.344 285.785 251.769C286.78 251.194 288.395 251.194 289.391 251.769Z" fill="white"/>
<path fill-rule="evenodd" clip-rule="evenodd" d="M308.711 240.614C309.707 241.189 309.707 242.121 308.711 242.696C307.715 243.271 306.101 243.271 305.105 242.696C304.109 242.121 304.109 241.189 305.105 240.614C306.101 240.039 307.715 240.039 308.711 240.614Z" fill="white"/>
<path fill-rule="evenodd" clip-rule="evenodd" d="M289.392 274.078C290.388 274.653 290.388 275.585 289.392 276.16C288.396 276.735 286.782 276.735 285.786 276.16C284.789 275.585 284.789 274.653 285.786 274.078C286.781 273.503 288.396 273.503 289.392 274.078Z" fill="white"/>
<path fill-rule="evenodd" clip-rule="evenodd" d="M308.712 262.924C309.708 263.499 309.708 264.431 308.712 265.006C307.716 265.581 306.101 265.581 305.106 265.006C304.109 264.431 304.109 263.499 305.105 262.924C306.101 262.349 307.716 262.349 308.712 262.924Z" fill="white"/>
<path fill-rule="evenodd" clip-rule="evenodd" d="M328.032 251.769C329.028 252.344 329.028 253.276 328.032 253.851C327.036 254.426 325.422 254.426 324.426 253.851C323.43 253.276 323.429 252.344 324.426 251.769C325.422 251.194 327.036 251.194 328.032 251.769Z" fill="white"/>
<path fill-rule="evenodd" clip-rule="evenodd" d="M308.712 285.233C309.708 285.808 309.708 286.74 308.712 287.315C307.716 287.89 306.101 287.89 305.106 287.315C304.109 286.74 304.109 285.808 305.106 285.233C306.101 284.658 307.716 284.658 308.712 285.233Z" fill="white"/>
<path fill-rule="evenodd" clip-rule="evenodd" d="M328.032 274.079C329.028 274.654 329.028 275.586 328.032 276.161C327.036 276.736 325.422 276.736 324.426 276.161C323.43 275.586 323.43 274.654 324.426 274.079C325.422 273.504 327.036 273.504 328.032 274.079Z" fill="white"/>
<path fill-rule="evenodd" clip-rule="evenodd" d="M347.352 262.924C348.348 263.499 348.348 264.431 347.352 265.007C346.356 265.581 344.742 265.581 343.746 265.007C342.749 264.431 342.749 263.499 343.746 262.924C344.741 262.349 346.356 262.349 347.352 262.924Z" fill="white"/>
<path fill-rule="evenodd" clip-rule="evenodd" d="M328.033 296.388C329.029 296.963 329.029 297.895 328.033 298.47C327.037 299.045 325.423 299.045 324.427 298.47C323.431 297.895 323.431 296.963 324.427 296.388C325.423 295.813 327.037 295.813 328.033 296.388Z" fill="white"/>
<path fill-rule="evenodd" clip-rule="evenodd" d="M347.353 285.233C348.349 285.808 348.349 286.74 347.353 287.315C346.357 287.89 344.743 287.89 343.747 287.315C342.75 286.74 342.75 285.808 343.747 285.233C344.742 284.658 346.357 284.658 347.353 285.233Z" fill="white"/>
<path fill-rule="evenodd" clip-rule="evenodd" d="M366.673 274.079C367.669 274.654 367.669 275.586 366.673 276.162C365.677 276.736 364.063 276.736 363.067 276.162C362.071 275.586 362.071 274.654 363.067 274.079C364.063 273.504 365.677 273.504 366.673 274.079Z" fill="white"/>
<path fill-rule="evenodd" clip-rule="evenodd" d="M270.073 352.16C271.069 352.735 271.069 353.667 270.073 354.243C269.077 354.817 267.463 354.817 266.467 354.242C265.47 353.667 265.47 352.735 266.467 352.16C267.462 351.585 269.077 351.585 270.073 352.16Z" fill="white"/>
<path fill-rule="evenodd" clip-rule="evenodd" d="M289.393 341.006C290.389 341.581 290.389 342.513 289.393 343.088C288.397 343.663 286.783 343.663 285.787 343.088C284.791 342.513 284.791 341.581 285.787 341.006C286.783 340.431 288.397 340.431 289.393 341.006Z" fill="white"/>
<path fill-rule="evenodd" clip-rule="evenodd" d="M308.713 329.851C309.709 330.426 309.709 331.358 308.713 331.934C307.717 332.508 306.103 332.508 305.107 331.934C304.111 331.358 304.11 330.426 305.107 329.851C306.103 329.276 307.717 329.276 308.713 329.851Z" fill="white"/>
<path fill-rule="evenodd" clip-rule="evenodd" d="M328.034 318.697C329.03 319.272 329.03 320.204 328.034 320.78C327.038 321.354 325.423 321.354 324.428 320.779C323.431 320.204 323.431 319.272 324.427 318.697C325.423 318.122 327.038 318.122 328.034 318.697Z" fill="white"/>
<path fill-rule="evenodd" clip-rule="evenodd" d="M289.394 363.315C290.39 363.89 290.39 364.822 289.394 365.398C288.398 365.972 286.783 365.972 285.788 365.397C284.791 364.822 284.791 363.89 285.788 363.315C286.783 362.74 288.398 362.74 289.394 363.315Z" fill="white"/>
<path fill-rule="evenodd" clip-rule="evenodd" d="M308.714 352.161C309.71 352.736 309.71 353.668 308.714 354.243C307.718 354.818 306.104 354.818 305.108 354.243C304.112 353.668 304.112 352.736 305.108 352.161C306.104 351.586 307.718 351.586 308.714 352.161Z" fill="white"/>
<path fill-rule="evenodd" clip-rule="evenodd" d="M328.034 341.006C329.03 341.581 329.03 342.513 328.034 343.088C327.038 343.663 325.424 343.663 324.428 343.088C323.431 342.513 323.431 341.581 324.428 341.006C325.423 340.431 327.038 340.431 328.034 341.006Z" fill="white"/>
<path fill-rule="evenodd" clip-rule="evenodd" d="M347.354 329.851C348.35 330.426 348.35 331.358 347.354 331.934C346.358 332.508 344.744 332.508 343.748 331.933C342.752 331.358 342.752 330.426 343.748 329.851C344.744 329.276 346.358 329.276 347.354 329.851Z" fill="white"/>
<path fill-rule="evenodd" clip-rule="evenodd" d="M347.353 307.542C348.349 308.117 348.349 309.049 347.353 309.624C346.357 310.199 344.743 310.199 343.747 309.624C342.751 309.049 342.75 308.117 343.747 307.542C344.743 306.967 346.357 306.967 347.353 307.542Z" fill="white"/>
<path fill-rule="evenodd" clip-rule="evenodd" d="M366.674 296.388C367.67 296.963 367.67 297.895 366.674 298.47C365.678 299.045 364.063 299.045 363.068 298.47C362.071 297.895 362.071 296.963 363.068 296.388C364.063 295.813 365.678 295.813 366.674 296.388Z" fill="white"/>
<path fill-rule="evenodd" clip-rule="evenodd" d="M385.994 285.233C386.99 285.808 386.99 286.74 385.994 287.316C384.998 287.89 383.384 287.89 382.388 287.316C381.392 286.74 381.392 285.808 382.388 285.233C383.384 284.658 384.998 284.658 385.994 285.233Z" fill="white"/>
<path fill-rule="evenodd" clip-rule="evenodd" d="M366.674 318.697C367.67 319.272 367.67 320.204 366.674 320.779C365.678 321.354 364.063 321.354 363.068 320.779C362.071 320.204 362.071 319.272 363.068 318.697C364.063 318.122 365.678 318.122 366.674 318.697Z" fill="white"/>
<path fill-rule="evenodd" clip-rule="evenodd" d="M385.994 307.542C386.99 308.117 386.99 309.049 385.994 309.625C384.998 310.199 383.384 310.199 382.388 309.625C381.392 309.049 381.392 308.117 382.388 307.542C383.384 306.967 384.998 306.967 385.994 307.542Z" fill="white"/>
<path fill-rule="evenodd" clip-rule="evenodd" d="M405.314 296.388C406.31 296.963 406.31 297.895 405.314 298.471C404.318 299.045 402.704 299.045 401.708 298.47C400.711 297.895 400.711 296.963 401.708 296.388C402.704 295.813 404.318 295.813 405.314 296.388Z" fill="white"/>
<path fill-rule="evenodd" clip-rule="evenodd" d="M404.014 163.51V314.353C404.014 318.849 399.146 321.659 395.252 319.411L237.999 228.621C231.952 225.13 228.225 218.676 228.225 211.693V60.8492C228.225 56.3532 233.093 53.5432 236.987 55.7912L394.24 146.581C400.288 150.072 404.014 156.526 404.014 163.51Z" fill="#425E67"/>
<path fill-rule="evenodd" clip-rule="evenodd" d="M361.278 235.419L364.47 237.262V233.576L361.278 231.733V235.419Z" fill="white"/>
<path fill-rule="evenodd" clip-rule="evenodd" d="M369.534 240.185L372.725 242.028V238.342L369.534 236.499V240.185Z" fill="white"/>
<path fill-rule="evenodd" clip-rule="evenodd" d="M377.79 244.952L380.982 246.795V243.109L377.79 241.266V244.952Z" fill="#FBBD92"/>
<path fill-rule="evenodd" clip-rule="evenodd" d="M386.045 249.718L389.237 251.561V247.875L386.045 246.032V249.718Z" fill="#FBBD92"/>
<path fill-rule="evenodd" clip-rule="evenodd" d="M336.512 230.608L339.704 232.451V228.765L336.512 226.922V230.608Z" fill="white"/>
<path fill-rule="evenodd" clip-rule="evenodd" d="M344.768 235.374L347.959 237.217V233.531L344.768 231.688V235.374Z" fill="white"/>
<path fill-rule="evenodd" clip-rule="evenodd" d="M353.023 240.141L356.215 241.984V238.298L353.023 236.455V240.141Z" fill="white"/>
<path fill-rule="evenodd" clip-rule="evenodd" d="M361.278 244.907L364.47 246.75V243.064L361.278 241.221V244.907Z" fill="white"/>
<path fill-rule="evenodd" clip-rule="evenodd" d="M369.534 249.673L372.725 251.516V247.83L369.534 245.987V249.673Z" fill="white"/>
<path fill-rule="evenodd" clip-rule="evenodd" d="M377.79 254.439L380.982 256.282V252.596L377.79 250.753V254.439Z" fill="#FBBD92"/>
<path fill-rule="evenodd" clip-rule="evenodd" d="M386.045 259.206L389.237 261.049V257.363L386.045 255.52V259.206Z" fill="#FBBD92"/>
<path fill-rule="evenodd" clip-rule="evenodd" d="M336.512 240.096L339.704 241.939V238.253L336.512 236.41V240.096Z" fill="white"/>
<path fill-rule="evenodd" clip-rule="evenodd" d="M344.768 244.862L347.959 246.705V243.019L344.768 241.176V244.862Z" fill="white"/>
<path fill-rule="evenodd" clip-rule="evenodd" d="M353.023 249.628L356.215 251.471V247.785L353.023 245.942V249.628Z" fill="white"/>
<path fill-rule="evenodd" clip-rule="evenodd" d="M361.278 254.394L364.47 256.237V252.551L361.278 250.708V254.394Z" fill="white"/>
<path fill-rule="evenodd" clip-rule="evenodd" d="M369.534 259.161L372.725 261.004V257.318L369.534 255.475V259.161Z" fill="white"/>
<path fill-rule="evenodd" clip-rule="evenodd" d="M377.79 263.927L380.982 265.77V262.084L377.79 260.241V263.927Z" fill="#FBBD92"/>
<path fill-rule="evenodd" clip-rule="evenodd" d="M386.045 268.694L389.237 270.537V266.851L386.045 265.008V268.694Z" fill="#FBBD92"/>
<path fill-rule="evenodd" clip-rule="evenodd" d="M336.512 249.584L339.704 251.427V247.741L336.512 245.898V249.584Z" fill="white"/>
<path fill-rule="evenodd" clip-rule="evenodd" d="M344.768 254.35L347.959 256.193V252.507L344.768 250.664V254.35Z" fill="white"/>
<path fill-rule="evenodd" clip-rule="evenodd" d="M353.023 259.116L356.215 260.959V257.273L353.023 255.43V259.116Z" fill="white"/>
<path fill-rule="evenodd" clip-rule="evenodd" d="M361.278 263.883L364.47 265.726V262.04L361.278 260.197V263.883Z" fill="white"/>
<path fill-rule="evenodd" clip-rule="evenodd" d="M369.534 268.649L372.725 270.492V266.806L369.534 264.963V268.649Z" fill="white"/>
<path fill-rule="evenodd" clip-rule="evenodd" d="M377.79 273.415L380.982 275.258V271.572L377.79 269.729V273.415Z" fill="#FBBD92"/>
<path fill-rule="evenodd" clip-rule="evenodd" d="M386.045 278.182L389.237 280.025V276.339L386.045 274.496V278.182Z" fill="#FBBD92"/>
<path fill-rule="evenodd" clip-rule="evenodd" d="M336.512 259.071L339.704 260.914V257.228L336.512 255.385V259.071Z" fill="white"/>
<path fill-rule="evenodd" clip-rule="evenodd" d="M344.768 263.838L347.959 265.681V261.995L344.768 260.152V263.838Z" fill="white"/>
<path fill-rule="evenodd" clip-rule="evenodd" d="M353.023 268.604L356.215 270.447V266.761L353.023 264.918V268.604Z" fill="white"/>
<path fill-rule="evenodd" clip-rule="evenodd" d="M361.278 273.371L364.47 275.214V271.528L361.278 269.685V273.371Z" fill="white"/>
<path fill-rule="evenodd" clip-rule="evenodd" d="M369.534 278.137L372.725 279.98V276.294L369.534 274.451V278.137Z" fill="white"/>
<path fill-rule="evenodd" clip-rule="evenodd" d="M245.149 137.965C244.992 137.965 244.865 137.838 244.865 137.682V118.835C244.865 118.679 244.992 118.552 245.149 118.552C245.306 118.552 245.433 118.679 245.433 118.835V137.682C245.433 137.838 245.306 137.965 245.149 137.965Z" fill="white"/>
<path fill-rule="evenodd" clip-rule="evenodd" d="M268.682 151.552C268.525 151.552 268.398 151.425 268.398 151.269V105.145C268.398 104.989 268.525 104.862 268.682 104.862C268.839 104.862 268.966 104.989 268.966 105.145V151.269C268.966 151.425 268.839 151.552 268.682 151.552Z" fill="white"/>
<path fill-rule="evenodd" clip-rule="evenodd" d="M272.573 159.238L264.792 154.745V158.471L272.573 162.963V159.238Z" fill="white"/>
<path fill-rule="evenodd" clip-rule="evenodd" d="M248.637 145.418L240.856 140.926V144.651L248.637 149.144V145.418Z" fill="white"/>
<path fill-rule="evenodd" clip-rule="evenodd" d="M292.215 165.138C292.058 165.138 291.931 165.011 291.931 164.855V146.008C291.931 145.852 292.058 145.725 292.215 145.725C292.372 145.725 292.499 145.852 292.499 146.008V164.855C292.499 165.011 292.372 165.138 292.215 165.138Z" fill="white"/>
<path fill-rule="evenodd" clip-rule="evenodd" d="M296.105 172.824L288.324 168.332V172.057L296.105 176.55V172.824Z" fill="white"/>
<path fill-rule="evenodd" clip-rule="evenodd" d="M315.747 178.641C315.59 178.641 315.463 178.514 315.463 178.358V132.234C315.463 132.078 315.59 131.951 315.747 131.951C315.904 131.951 316.031 132.078 316.031 132.234V178.358C316.031 178.514 315.904 178.641 315.747 178.641Z" fill="white"/>
<path fill-rule="evenodd" clip-rule="evenodd" d="M319.638 186.411L311.857 181.919V185.644L319.638 190.137V186.411Z" fill="white"/>
<path fill-rule="evenodd" clip-rule="evenodd" d="M339.28 192.226C339.123 192.226 338.996 192.099 338.996 191.943V173.097C338.996 172.941 339.123 172.814 339.28 172.814C339.437 172.814 339.564 172.941 339.564 173.097V191.943C339.564 192.099 339.437 192.226 339.28 192.226Z" fill="#C5CED5"/>
<path fill-rule="evenodd" clip-rule="evenodd" d="M343.171 199.998L335.39 195.505V199.231L343.171 203.724V199.998Z" fill="white"/>
<path fill-rule="evenodd" clip-rule="evenodd" d="M362.812 205.814C362.655 205.814 362.529 205.687 362.529 205.531V159.407C362.529 159.251 362.655 159.124 362.812 159.124C362.97 159.124 363.096 159.251 363.096 159.407V205.531C363.096 205.687 362.97 205.814 362.812 205.814Z" fill="white"/>
<path fill-rule="evenodd" clip-rule="evenodd" d="M366.703 213.584L358.922 209.092V212.817L366.703 217.31V213.584Z" fill="white"/>
<path fill-rule="evenodd" clip-rule="evenodd" d="M386.345 219.4C386.188 219.4 386.061 219.273 386.061 219.117V200.27C386.061 200.114 386.188 199.987 386.345 199.987C386.502 199.987 386.629 200.114 386.629 200.27V219.117C386.629 219.273 386.502 219.4 386.345 219.4Z" fill="white"/>
<path fill-rule="evenodd" clip-rule="evenodd" d="M390.236 227.17L382.455 222.678V226.403L390.236 230.896V227.17Z" fill="white"/>
<mask id="mask3" mask-type="alpha" maskUnits="userSpaceOnUse" x="239" y="116" width="157" height="91">
<path fill-rule="evenodd" clip-rule="evenodd" d="M255.516 120.65C252.004 123.092 248.372 125.616 245.209 123.79C245.188 123.778 245.167 123.765 245.146 123.753L240.457 121.064C239.986 120.794 239.605 121.018 239.607 121.563C239.609 122.108 239.99 122.767 240.461 123.038C240.462 123.039 240.463 123.04 240.464 123.04L245.135 125.718C245.166 125.737 245.197 125.755 245.227 125.773C249.128 128.024 252.847 125.44 256.781 122.707C260.684 119.994 264.72 117.189 268.695 119.416C268.73 119.435 268.766 119.455 268.802 119.476C272.667 121.707 276.189 127.342 279.916 133.303C283.73 139.405 287.674 145.713 292.215 148.334C296.786 150.974 300.093 144.893 303.595 138.455C307.037 132.129 310.937 124.958 315.747 127.734C320.539 130.501 324.131 139.45 327.607 148.106C331.128 156.875 334.454 165.162 339.223 167.915C339.245 167.927 339.267 167.94 339.289 167.953C343.966 170.595 347.861 171.737 351.628 172.841C355.262 173.906 358.695 174.912 362.837 177.165C366.784 179.308 369.967 183.605 373.326 188.145C377.042 193.168 380.884 198.361 386.2 201.429C386.248 201.457 386.297 201.485 386.345 201.513L394.663 206.315C395.136 206.587 395.518 206.366 395.518 205.822C395.518 205.277 395.136 204.615 394.663 204.342L386.338 199.535C386.295 199.511 386.254 199.488 386.212 199.463C381.405 196.688 377.781 191.792 374.278 187.055C370.842 182.413 367.286 177.607 362.787 175.164C358.464 172.814 354.781 171.734 351.22 170.69C347.548 169.614 343.751 168.501 339.271 165.97C339.256 165.961 339.241 165.953 339.225 165.944C335.419 163.746 332.334 156.063 329.069 147.931C325.349 138.666 321.503 129.085 315.747 125.762C309.86 122.363 305.892 129.659 302.054 136.715C298.935 142.45 295.709 148.38 292.215 146.362C288.321 144.115 284.624 138.2 281.048 132.48C277.246 126.397 273.315 120.109 268.8 117.503C268.757 117.478 268.713 117.453 268.669 117.428C267.383 116.707 266.129 116.405 264.901 116.406C261.625 116.406 258.533 118.555 255.516 120.65Z" fill="white"/>
</mask>
<g mask="url(#mask3)">
<path fill-rule="evenodd" clip-rule="evenodd" d="M255.516 120.65C252.004 123.092 248.372 125.616 245.209 123.79C245.188 123.778 245.167 123.765 245.146 123.753L240.457 121.064C239.986 120.794 239.605 121.018 239.607 121.563C239.609 122.108 239.99 122.767 240.461 123.038C240.462 123.039 240.463 123.04 240.464 123.04L245.135 125.718C245.166 125.737 245.197 125.755 245.227 125.773C249.128 128.024 252.847 125.44 256.781 122.707C260.684 119.994 264.72 117.189 268.695 119.416C268.73 119.435 268.766 119.455 268.802 119.476C272.667 121.707 276.189 127.342 279.916 133.303C283.73 139.405 287.674 145.713 292.215 148.334C296.786 150.974 300.093 144.893 303.595 138.455C307.037 132.129 310.937 124.958 315.747 127.734C320.539 130.501 324.131 139.45 327.607 148.106C331.128 156.875 334.454 165.162 339.223 167.915C339.245 167.927 339.267 167.94 339.289 167.953C343.966 170.595 347.861 171.737 351.628 172.841C355.262 173.906 358.695 174.912 362.837 177.165C366.784 179.308 369.967 183.605 373.326 188.145C377.042 193.168 380.884 198.361 386.2 201.429C386.248 201.457 386.297 201.485 386.345 201.513L394.663 206.315C395.136 206.587 395.518 206.366 395.518 205.822C395.518 205.277 395.136 204.615 394.663 204.342L386.338 199.535C386.295 199.511 386.254 199.488 386.212 199.463C381.405 196.688 377.781 191.792 374.278 187.055C370.842 182.413 367.286 177.607 362.787 175.164C358.464 172.814 354.781 171.734 351.22 170.69C347.548 169.614 343.751 168.501 339.271 165.97C339.256 165.961 339.241 165.953 339.225 165.944C335.419 163.746 332.334 156.063 329.069 147.931C325.349 138.666 321.503 129.085 315.747 125.762C309.86 122.363 305.892 129.659 302.054 136.715C298.935 142.45 295.709 148.38 292.215 146.362C288.321 144.115 284.624 138.2 281.048 132.48C277.246 126.397 273.315 120.109 268.8 117.503C268.757 117.478 268.713 117.453 268.669 117.428C267.383 116.707 266.129 116.405 264.901 116.406C261.625 116.406 258.533 118.555 255.516 120.65Z" fill="url(#paint3_linear)"/>
</g>
<path fill-rule="evenodd" clip-rule="evenodd" d="M257.742 212.017C250.6 207.893 244.81 197.866 244.81 189.619C244.81 181.372 250.6 178.029 257.742 182.152C264.884 186.276 270.673 196.304 270.673 204.55C270.673 212.797 264.884 216.14 257.742 212.017ZM257.742 177.586C248.416 172.202 240.856 176.567 240.856 187.336C240.856 198.104 248.416 211.199 257.742 216.583C267.068 221.967 274.627 217.602 274.627 206.833C274.627 196.065 267.068 182.971 257.742 177.586Z" fill="#FBBD92"/>
<path fill-rule="evenodd" clip-rule="evenodd" d="M307.489 240.738C300.347 236.615 294.558 226.587 294.558 218.34C294.558 210.093 300.347 206.75 307.489 210.874C314.631 214.997 320.421 225.025 320.421 233.272C320.421 241.519 314.631 244.862 307.489 240.738ZM307.489 206.308C298.163 200.924 290.604 205.288 290.604 216.057C290.604 226.825 298.163 239.92 307.489 245.304C316.815 250.688 324.375 246.323 324.375 235.555C324.375 224.786 316.815 211.692 307.489 206.308Z" fill="#FBBD92"/>
<path fill-rule="evenodd" clip-rule="evenodd" d="M314.374 120.247L315.467 123.982L316.56 121.509L319.357 123.124V116.833L311.577 112.341V118.632L314.374 120.247Z" fill="#FBBD92"/>
<path fill-rule="evenodd" clip-rule="evenodd" d="M268.419 194.827L271.683 194.137C268.642 187.249 263.535 180.93 257.743 177.586V182.153C262.179 184.713 266.089 189.552 268.419 194.827Z" fill="white"/>
<path fill-rule="evenodd" clip-rule="evenodd" d="M320.421 233.272C320.421 236.724 319.397 239.302 317.693 240.848L320.813 245.447C323.038 243.429 324.375 240.063 324.375 235.555C324.375 224.787 316.815 211.692 307.489 206.308V210.874C314.631 214.997 320.421 225.025 320.421 233.272Z" fill="white"/>
<mask id="mask4" mask-type="alpha" maskUnits="userSpaceOnUse" x="220" y="0" width="145" height="332">
<path fill-rule="evenodd" clip-rule="evenodd" d="M220.365 0.237061L364.085 83.8301V331.186L220.365 247.627V0.237061Z" fill="white"/>
</mask>
<g mask="url(#mask4)">
<path fill-rule="evenodd" clip-rule="evenodd" d="M220.365 247.627L364.085 331.186V171.614L220.365 88.021V247.627Z" fill="url(#paint4_linear)"/>
</g>
<path fill-rule="evenodd" clip-rule="evenodd" d="M364.085 332.23C364.431 332.23 364.769 332.053 364.957 331.732C365.239 331.251 365.079 330.632 364.598 330.349L220.365 247.626C219.883 247.343 219.265 247.505 218.982 247.986C218.7 248.466 218.86 249.086 219.341 249.369L363.574 332.091C363.734 332.186 363.911 332.23 364.085 332.23Z" fill="#FBBD92"/>
<defs>
<linearGradient id="paint0_linear" x1="536.387" y1="567.658" x2="73.8822" y2="631.506" gradientUnits="userSpaceOnUse">
<stop stop-color="#AEC6A4"/>
<stop offset="1" stop-color="#475B61"/>
</linearGradient>
<linearGradient id="paint1_linear" x1="164.227" y1="330.286" x2="302.419" y2="496.768" gradientUnits="userSpaceOnUse">
<stop stop-color="#D7E5D1"/>
<stop offset="1" stop-color="#AEC6A4"/>
</linearGradient>
<linearGradient id="paint2_linear" x1="126" y1="381.392" x2="497.312" y2="381.392" gradientUnits="userSpaceOnUse">
<stop stop-color="#F6F7FF"/>
<stop offset="1" stop-color="#F2F2F9"/>
</linearGradient>
<linearGradient id="paint3_linear" x1="296.121" y1="126.062" x2="287.022" y2="173.888" gradientUnits="userSpaceOnUse">
<stop stop-color="#FFAC6E"/>
<stop offset="1" stop-color="#FF596E"/>
</linearGradient>
<linearGradient id="paint4_linear" x1="289.229" y1="283.778" x2="331.671" y2="244.738" gradientUnits="userSpaceOnUse">
<stop stop-color="#FBC5A3" stop-opacity="0.685834"/>
<stop offset="1" stop-color="#FFAC6E" stop-opacity="0.0136309"/>
</linearGradient>
</defs>
</svg>
